"c..Up.Up.Up....4...Down.Up.Up....31...Up.Down.Up....125...Down.Down.Up....48.."
"Up-Up-Up" 4
"Down-Up-Up" 31
"Up-Down-Up" 125
"Down-Down-Up" 48
"Up-Up-Down" 12
"Down-Up-Down" 210
"Up-Down-Down" 44
"EE-Up-Up" 0
"Up-EE-Up" 0
"EE-EE-Up" 0
"Down-EE-Up" 0
"EE-Down-Up" 0
"Up-Up-EE" 0
"EE-Up-EE" 0
"Down-Up-EE" 0
"Up-EE-EE" 0
"Up-Down-EE" 0
"EE-Up-Down" 0
"Up-EE-Down" 0
"Down-Down-Down" 11
"Down-EE-EE" 0
"EE-Down-EE" 0
"Down-Down-EE" 0
"EE-EE-Down" 0
"Down-EE-Down" 0
"EE-Down-Down" 0
