sample	the_colors
F3H.OX3_C_R1	#00688B
F3H.OX3_C_R2	#00688B
F3H.OX3_C_R3	#00688B
F3H.OX3_T_R1	#CD8500
F3H.OX3_T_R2	#CD8500
F3H.OX3_T_R3	#CD8500
F3H.OX4_C_R1	#3A5FCD
F3H.OX4_C_R2	#3A5FCD
F3H.OX4_C_R3	#3A5FCD
F3H.OX4_T_R1	#8B0000
F3H.OX4_T_R2	#8B0000
F3H.OX4_T_R3	#8B0000
VF36_C_R1	#228B22
VF36_C_R2	#228B22
VF36_C_R3	#228B22
VF36_T_R1	#A0522D
VF36_T_R2	#A0522D
VF36_T_R3	#A0522D
are_C_R1	#708090
are_C_R2	#708090
are_C_R3	#708090
are_T_R1	#8B6914
are_T_R2	#8B6914
are_T_R3	#8B6914
